<?xml version="1.0" encoding="UTF-8" standalone="no"?>
<svg
   xmlns:dc="http://purl.org/dc/elements/1.1/"
   xmlns:cc="http://creativecommons.org/ns#"
   xmlns:rdf="http://www.w3.org/1999/02/22-rdf-syntax-ns#"
   xmlns:svg="http://www.w3.org/2000/svg"
   xmlns="http://www.w3.org/2000/svg"
   xmlns:sodipodi="http://sodipodi.sourceforge.net/DTD/sodipodi-0.dtd"
   xmlns:inkscape="http://www.inkscape.org/namespaces/inkscape"
   sodipodi:docname="calligraphy-f02.svg"
   inkscape:version="1.0beta1 (a4ee55bc41, 2019-11-15)"
   sodipodi:version="0.32"
   id="svg2265"
   viewBox="0 0 300 187"
   height="187"
   width="300"
   version="1.1">
  <defs
     id="defs3" />
  <sodipodi:namedview
     inkscape:window-maximized="0"
     inkscape:window-y="27"
     inkscape:window-x="54"
     inkscape:window-height="1053"
     inkscape:window-width="1866"
     inkscape:guide-bbox="true"
     showguides="true"
     units="px"
     showgrid="false"
     inkscape:document-rotation="0"
     inkscape:current-layer="layer1"
     inkscape:document-units="px"
     inkscape:cy="93.5"
     inkscape:cx="160"
     inkscape:zoom="1.4"
     inkscape:pageshadow="2"
     inkscape:pageopacity="0.0"
     borderopacity="1.0"
     bordercolor="#666666"
     pagecolor="#ffffff"
     id="base"
     inkscape:lockguides="true" />
  <metadata
     id="metadata4">
    <rdf:RDF>
      <cc:Work
         rdf:about="">
        <dc:format>image/svg+xml</dc:format>
        <dc:type
           rdf:resource="http://purl.org/dc/dcmitype/StillImage" />
        <dc:title />
      </cc:Work>
    </rdf:RDF>
  </metadata>
  <g
     id="layer1"
     inkscape:groupmode="layer"
     inkscape:label="Layer 1">
    <text
       id="text1987"
       y="6"
       x="75"
       style="font-style:normal;font-weight:normal;line-height:0%;font-family:'Liberation Sans',Arial,sans-serif;text-align:center;text-anchor:middle;display:block;fill:#000000;fill-opacity:1;stroke:none;stroke-width:1pt;stroke-linecap:butt;stroke-linejoin:miter;stroke-opacity:1"
       xml:space="preserve"><tspan
         y="6"
         x="75"
         id="tspan1988"
         sodipodi:role="line"
         style="font-size:6px;line-height:1.1;text-align:center;text-anchor:middle">thinning = 0 (uniform width) </tspan></text>
    <text
       id="text1990"
       y="74.558846"
       x="75"
       style="font-style:normal;font-weight:normal;line-height:0%;font-family:'Liberation Sans',Arial,sans-serif;text-align:center;text-anchor:middle;display:block;fill:#000000;fill-opacity:1;stroke:none;stroke-width:1pt;stroke-linecap:butt;stroke-linejoin:miter;stroke-opacity:1"
       xml:space="preserve"><tspan
         y="74.558846"
         x="75"
         id="tspan1991"
         sodipodi:role="line"
         style="font-size:6px;line-height:1.1;text-align:center;text-anchor:middle">thinning = 10</tspan></text>
    <text
       id="text1993"
       y="139.55885"
       x="75"
       style="font-style:normal;font-weight:normal;line-height:0%;font-family:'Liberation Sans',Arial,sans-serif;text-align:center;text-anchor:middle;display:block;fill:#000000;fill-opacity:1;stroke:none;stroke-width:1pt;stroke-linecap:butt;stroke-linejoin:miter;stroke-opacity:1"
       xml:space="preserve"><tspan
         y="139.55885"
         x="75"
         id="tspan1994"
         sodipodi:role="line"
         style="font-size:6px;line-height:1.1;text-align:center;text-anchor:middle">thinning = 40</tspan></text>
    <text
       id="text1996"
       y="6"
       x="225"
       style="font-style:normal;font-weight:normal;line-height:0%;font-family:'Liberation Sans',Arial,sans-serif;text-align:center;text-anchor:middle;display:block;fill:#000000;fill-opacity:1;stroke:none;stroke-width:1pt;stroke-linecap:butt;stroke-linejoin:miter;stroke-opacity:1"
       xml:space="preserve"><tspan
         y="6"
         x="225"
         id="tspan1997"
         sodipodi:role="line"
         style="font-size:6px;line-height:1.1;text-align:center;text-anchor:middle">thinning = −20</tspan></text>
    <text
       id="text1999"
       y="84.558846"
       x="225"
       style="font-style:normal;font-weight:normal;line-height:0%;font-family:'Liberation Sans',Arial,sans-serif;text-align:center;text-anchor:middle;display:block;fill:#000000;fill-opacity:1;stroke:none;stroke-width:1pt;stroke-linecap:butt;stroke-linejoin:miter;stroke-opacity:1"
       xml:space="preserve"><tspan
         y="84.558846"
         x="225"
         id="tspan2000"
         sodipodi:role="line"
         style="font-size:6px;line-height:1.1;text-align:center;text-anchor:middle">thinning = −60</tspan></text>
    <path
       d="m 10.146606,33.0334 c 8.33658,-0.1302 16.66173,0.161 24.988432,0.5273 13.402451,0.4265 26.816033,0.6919 40.226131,0.5875 16.433639,-0.5619 32.819391,-0.0338 49.214311,1.0772 6.02616,0.4379 3.02378,0.2188 9.00714,0.6573 v 5.5832 c -5.98336,-0.4385 -2.98098,-0.2194 -9.00714,-0.6573 C 108.18056,39.6976 91.794808,39.1696 75.361169,39.7315 61.951071,39.8359 48.537489,39.5704 35.135038,39.1439 26.808336,38.7777 18.483186,38.4864 10.146606,38.6166 Z"
       id="path1948"
       style="display:block;fill:#000000;fill-opacity:1;fill-rule:nonzero;stroke:none;stroke-width:1pt;stroke-linecap:butt;stroke-linejoin:miter;stroke-opacity:1"
       inkscape:connector-curvature="0" />
    <path
       d="m 17.292938,91.5001 c 0.01475,-1.8783 -0.02196,-3.7577 0.04426,-5.6349 0.0237,-0.6719 23.428404,-1.1479 24.343744,-1.1612 21.837612,-0.0121 43.599612,-2.0025 65.412128,-2.7054 8.77046,-0.1593 17.5428,-0.0639 26.31417,-0.0689 v 4.3557 c -8.77009,-0.1772 -17.5417,-0.3879 -26.31417,-0.3172 -21.830212,0.5393 -43.56416,2.9639 -65.412128,3.0985 -6.06148,0.2066 -12.106521,0.5393 -18.135581,1.2177 -1.72376,0.1941 -3.455804,0.418 -5.150951,0.7916 -0.361944,0.0798 -1.043409,0.7148 -1.057212,0.3445 -0.06808,-1.8269 -0.0295,-3.6561 -0.04426,-5.484 z"
       id="path1949"
       style="display:block;fill:#000000;fill-opacity:1;fill-rule:nonzero;stroke:none;stroke-width:1pt;stroke-linecap:butt;stroke-linejoin:miter;stroke-opacity:1"
       inkscape:connector-curvature="0" />
    <path
       d="m 16.689577,93.0719 c 10.861066,0.3245 21.731284,0.2144 32.597765,0.5768 26.229682,0.718 52.498798,0.9837 78.723778,-0.0778 1.19284,-0.0582 2.38568,-0.1165 3.57852,-0.1748 v 4.4378 C 130.3968,97.8222 129.20396,97.8104 128.01112,97.7987 101.77114,97.6162 75.527934,98.1104 49.287342,97.7266 38.412427,97.631 27.533027,97.707 16.689577,98.6376 Z"
       id="path1950"
       style="display:block;fill:#000000;fill-opacity:1;fill-rule:nonzero;stroke:none;stroke-width:1pt;stroke-linecap:butt;stroke-linejoin:miter;stroke-opacity:1"
       inkscape:connector-curvature="0" />
    <path
       d="m 20.317396,102.2054 c 15.409984,-0.3964 30.842651,-0.1393 46.266174,0.2322 24.152679,0.5296 48.33206,0.0327 72.44639,-1.4273 v 4.4445 c -24.14457,-0.8293 -48.296864,0.0359 -72.44639,0.1048 -15.447719,0.095 -30.934821,0.1012 -46.266174,2.2203 z"
       id="path1951"
       style="display:block;fill:#000000;fill-opacity:1;fill-rule:nonzero;stroke:none;stroke-width:1pt;stroke-linecap:butt;stroke-linejoin:miter;stroke-opacity:1"
       inkscape:connector-curvature="0" />
    <path
       d="m 23.287201,112.4855 c 15.338751,-0.5204 30.656475,-2.1766 46.016708,-2.7598 21.807765,-0.4918 43.613501,0.9126 65.345031,2.6185 v 3.9061 c -21.65059,-2.7254 -43.522254,-4.2005 -65.345031,-3.4213 -15.441132,0.918 -30.729774,2.958 -46.016708,5.231 z"
       id="path1952"
       style="display:block;fill:#000000;fill-opacity:1;fill-rule:nonzero;stroke:none;stroke-width:1pt;stroke-linecap:butt;stroke-linejoin:miter;stroke-opacity:1"
       inkscape:connector-curvature="0" />
    <path
       d="m 10.896435,27.1942 c 0.01475,-1.861 -0.03179,-3.7236 0.04426,-5.5832 0.01544,-0.3774 0.755839,0.0146 1.133338,0 1.085317,-0.0419 2.16417,-0.1864 3.239792,-0.3266 6.212938,-0.8096 12.411505,-1.7054 18.636478,-2.4234 26.492589,-3.0194 53.135957,-3.546 79.724877,-1.737 9.03191,0.687 18.0297,1.7285 26.99873,2.982 v 5.5833 c -8.96903,-1.2536 -17.96682,-2.2951 -26.99873,-2.9821 -26.58892,-1.809 -53.232288,-1.2824 -79.724877,1.737 -0.955205,0.1103 -22.994399,3.122 -23.009608,2.75 -0.07605,-1.8595 -0.02951,-3.7221 -0.04426,-5.5832 z"
       id="path1953"
       style="display:block;fill:#000000;fill-opacity:1;fill-rule:nonzero;stroke:none;stroke-width:1pt;stroke-linecap:butt;stroke-linejoin:miter;stroke-opacity:1"
       inkscape:connector-curvature="0" />
    <path
       d="m 14.323134,51.1812 c -0.07742,0.0517 -0.0874,-0.0458 -0.124241,-0.0651 0.02806,-1.8739 -0.02251,-3.7506 0.08417,-5.6217 0.0474,-0.8311 23.32791,-1.6162 24.382644,-1.6189 32.108048,2.5968 64.052053,-1.1531 95.968303,-4.2303 1.69782,-0.1745 3.39564,-0.3489 5.09346,-0.5235 v 5.5833 c -1.69782,0.1745 -3.39564,0.3489 -5.09346,0.5235 -31.91625,3.0772 -63.860255,6.827 -95.968303,4.2303 -5.453947,0.0137 -10.849397,0.2056 -16.281322,0.6998 -2.253732,0.2051 -4.52166,0.3775 -6.770968,0.6286 -0.451098,0.0503 -1.303314,0.7435 -1.330354,0.2905 -0.110118,-1.8453 -0.05612,-3.6965 -0.08417,-5.5448 0.04141,0.0216 0.03789,0.1121 0.124241,0.065 z"
       id="path1956"
       style="display:block;fill:#000000;fill-opacity:1;fill-rule:nonzero;stroke:none;stroke-width:1pt;stroke-linecap:butt;stroke-linejoin:miter;stroke-opacity:1"
       inkscape:connector-curvature="0" />
    <path
       d="m 21.715402,26.4084 c 13.391484,-0.7634 26.774836,-0.1579 40.1664,0.2909 25.411472,0.5864 50.811358,-0.7137 76.227798,-0.5572 v 5.5833 C 112.69316,31.5688 87.293274,32.8689 61.881802,32.2825 48.490238,31.8337 35.106886,31.2282 21.715402,31.9917 Z"
       id="path1957"
       style="display:block;fill:#000000;fill-opacity:1;fill-rule:nonzero;stroke:none;stroke-width:1pt;stroke-linecap:butt;stroke-linejoin:miter;stroke-opacity:1"
       inkscape:connector-curvature="0" />
    <path
       d="m 31.406618,148.5828 c 14.487719,1.3909 29.225132,0.5274 43.79248,0.4169 16.499176,0.5323 32.991872,-0.0565 49.490602,-0.2115 0.70639,-0.0196 1.41277,-0.0392 2.11916,-0.0588 v 2.8694 c -0.70639,-0.0633 -1.41277,-0.1266 -2.11916,-0.19 -16.46688,-1.3278 -32.957616,-2.4056 -49.490602,-2.2974 -14.333023,0.1087 -30.148045,0.0436 -43.79248,4.6291 z"
       id="path1971"
       style="display:block;fill:#000000;fill-opacity:1;fill-rule:nonzero;stroke:none;stroke-width:1pt;stroke-linecap:butt;stroke-linejoin:miter;stroke-opacity:1"
       inkscape:connector-curvature="0" />
    <path
       d="m 22.881955,162.6059 c 9.620927,1.2565 19.650804,0.061 29.358641,-0.2397 18.741015,-0.4016 37.481325,-0.364 56.214084,-1.112 7.97659,-0.7391 15.98046,-0.8014 23.97395,-1.1816 v 3.5745 c -7.99824,-0.1505 -15.97082,-0.9781 -23.97395,-0.9596 -18.73817,0.0106 -37.499667,-1.4636 -56.214084,0.193 -9.901383,0.8865 -19.958108,1.8345 -29.358641,5.2736 z"
       id="path1972"
       style="display:block;fill:#000000;fill-opacity:1;fill-rule:nonzero;stroke:none;stroke-width:1pt;stroke-linecap:butt;stroke-linejoin:miter;stroke-opacity:1"
       inkscape:connector-curvature="0" />
    <path
       d="m 24.106166,172.9132 c 16.011238,0.5925 32.030393,-0.678 48.0188,-1.5476 18.840559,-1.147 37.735384,-0.5949 56.465834,-3.1719 1.51541,-0.2232 3.02032,-0.5082 4.52413,-0.7973 v 3.9122 c -1.50807,-0.015 -3.01613,-0.012 -4.52413,-0.0355 -18.82957,-0.8157 -37.638154,-1.387 -56.465834,0.2041 -15.789661,0.8589 -33.542772,-0.4143 -48.0188,6.875 z"
       id="path1973"
       style="display:block;fill:#000000;fill-opacity:1;fill-rule:nonzero;stroke:none;stroke-width:1pt;stroke-linecap:butt;stroke-linejoin:miter;stroke-opacity:1"
       inkscape:connector-curvature="0" />
    <path
       d="m 27.532864,180.7056 c 11.862309,1.6201 24.05016,1.8363 36.032157,1.7388 22.542103,-0.6944 45.391879,0.628 67.590909,-4.0023 1.89387,-0.3315 3.7535,-0.812 5.60606,-1.3184 v 3.5138 c -1.86597,0.1251 -3.73445,0.2397 -5.60606,0.1568 -22.52068,-0.3342 -45.036913,2.388 -67.590909,1.7617 -12.016726,0.0979 -24.398749,0.1894 -36.032157,3.5929 z"
       id="path1974"
       style="display:block;fill:#000000;fill-opacity:1;fill-rule:nonzero;stroke:none;stroke-width:1pt;stroke-linecap:butt;stroke-linejoin:miter;stroke-opacity:1"
       inkscape:connector-curvature="0" />
    <path
       d="m 172.57758,19.7011 c 15.98926,-3.0468 32.45831,-3.3301 48.68896,-4.2456 18.70083,-1.3829 37.32906,0.7053 55.56766,4.7487 v 6.993 c -18.48699,-1.496 -36.98489,-3.5276 -55.56766,-2.4402 -16.22152,0.5149 -32.46741,1.0094 -48.68896,0.6683 z"
       id="path1975"
       style="display:block;fill:#000000;fill-opacity:1;fill-rule:nonzero;stroke:none;stroke-width:1pt;stroke-linecap:butt;stroke-linejoin:miter;stroke-opacity:1"
       inkscape:connector-curvature="0" />
    <path
       d="m 174.37782,33.2358 c 16.01305,-2.031 32.12759,-3.111 48.25588,-3.6865 22.39114,-0.8746 44.83695,0.4107 67.21969,-0.7082 v 6.786 c -21.95718,5.3097 -44.90417,1.805 -67.21969,3.3084 -16.05693,0.2673 -32.24728,1.3846 -48.25588,0.0059 z"
       id="path1976"
       style="display:block;fill:#000000;fill-opacity:1;fill-rule:nonzero;stroke:none;stroke-width:1pt;stroke-linecap:butt;stroke-linejoin:miter;stroke-opacity:1"
       inkscape:connector-curvature="0" />
    <path
       d="m 172.52293,42.1737 c 16.73129,-1.3453 33.64974,-0.6116 50.4313,-0.3666 21.42773,0.3564 42.84563,1.2819 64.27623,1.4876 v 7.196 c -21.31799,2.7109 -42.86972,0.8511 -64.27623,0.8337 -16.84348,-0.4344 -33.73073,-1.1235 -50.4313,-3.4626 z"
       id="path1977"
       style="display:block;fill:#000000;fill-opacity:1;fill-rule:nonzero;stroke:none;stroke-width:1pt;stroke-linecap:butt;stroke-linejoin:miter;stroke-opacity:1"
       inkscape:connector-curvature="0" />
    <path
       d="m 173.09896,60.0404 c 11.0995,-3.3377 22.7881,-3.4016 34.27126,-3.92 24.67378,-1.3454 49.58636,-2.3212 74.16094,0.9709 0.76517,0.1152 1.53034,0.2304 2.29551,0.3457 v 7.0565 c -0.76517,0 -1.53034,-1e-4 -2.29551,-2e-4 -24.72297,0.1415 -49.44043,-0.1684 -74.16094,0.495 -11.42968,-0.0543 -22.88465,-0.2179 -34.27126,0.6702 z"
       id="path1978"
       style="display:block;fill:#000000;fill-opacity:1;fill-rule:nonzero;stroke:none;stroke-width:1pt;stroke-linecap:butt;stroke-linejoin:miter;stroke-opacity:1"
       inkscape:connector-curvature="0" />
    <path
       d="m 176.46353,102.2775 c 11.00736,-3.8811 23.27671,-5.1092 34.86755,-6.1507 20.94589,-1.6915 41.9979,-2.9426 62.8964,-0.1468 v 12.9192 c -20.96529,0.4279 -41.91222,1.8275 -62.8964,1.1928 -11.6192,-0.1234 -23.36135,-0.3306 -34.86755,-2.0357 z"
       id="path1983"
       style="display:block;fill:#000000;fill-opacity:1;fill-rule:nonzero;stroke:none;stroke-width:1pt;stroke-linecap:butt;stroke-linejoin:miter;stroke-opacity:1"
       inkscape:connector-curvature="0" />
    <path
       d="m 169.23969,121.7152 c 14.61124,-4.7714 29.96683,-6.4948 45.16842,-8.2765 20.1664,-2.567 40.38985,-0.9304 60.32324,2.5002 v 12.3222 c -20.06223,1.7426 -40.16082,3.3688 -60.32324,2.6207 -14.77538,-0.3745 -30.92423,0.6322 -45.16842,-3.5216 z"
       id="path1984"
       style="display:block;fill:#000000;fill-opacity:1;fill-rule:nonzero;stroke:none;stroke-width:1pt;stroke-linecap:butt;stroke-linejoin:miter;stroke-opacity:1"
       inkscape:connector-curvature="0" />
    <path
       d="m 172.4926,142.94 c 19.03055,-4.9258 38.57999,-7.0155 58.18975,-7.9663 19.95171,-0.9672 39.49983,2.6195 58.33525,8.9157 v 11.3843 c -19.44599,0.3929 -38.87583,-1.8658 -58.33525,-1.074 -18.62346,-0.0977 -40.58547,1.3824 -58.18975,-5.5187 z"
       id="path1985"
       style="display:block;fill:#000000;fill-opacity:1;fill-rule:nonzero;stroke:none;stroke-width:1pt;stroke-linecap:butt;stroke-linejoin:miter;stroke-opacity:1"
       inkscape:connector-curvature="0" />
    <path
       d="m 182.89183,163.7956 c -1.43636,-1.2583 -0.0743,-3.8209 0.009,-5.7287 0.092,-2.0978 29.27447,-4.729 31.0726,-4.8118 24.14882,-1.0945 48.35644,-0.0796 72.21115,3.8879 v 13.6319 c -24.0189,2.7102 -48.30237,1.422 -72.21115,-1.8154 -1.95417,-0.2662 -31.0083,-3.752 -31.0726,-5.2144 -0.0828,-1.882 -0.0388,-3.7674 -0.0582,-5.6511 0.0163,0.0249 0.005,0.0656 0.0488,0.0746 z"
       id="path1986"
       style="display:block;fill:#000000;fill-opacity:1;fill-rule:nonzero;stroke:none;stroke-width:1pt;stroke-linecap:butt;stroke-linejoin:miter;stroke-opacity:1"
       inkscape:connector-curvature="0" />
  </g>
</svg>
